Name,Division,BodyweightKg,WeightClassKg,Bench1Kg,Bench2Kg,Bench3Kg,Best3BenchKg,TotalKg,Equipment,Event,Sex,Place,State,Country
Ellie Steel,F-E-U23,55,57,75,80,85,85,85,Single-ply,B,F,1,SM,England
Megan Ainsworth,F-E-U23,37.3,43,55,-60,65,65,65,Single-ply,B,F,2,,
Jean Maton,F-E-M2,83.2,84,105,-110,110,110,110,Single-ply,B,F,3,,
Jackie Blasbery,F-E-M2,84,84,100,110,117.5,117.5,117.5,Single-ply,B,F,4,EM,England
Jennifer Nicoll,F-E-M1,84,84,95,100,105,105,105,Single-ply,B,F,5,,England
Alison Booker,F-E-U18,56.7,57,-72.5,72.5,77.5,77.5,77.5,Single-ply,B,F,6,,England
Jenny Hunter,F-E-M2,52,52,60,65,70,70,70,Single-ply,B,F,7,EM,England
Wendie Kirkland,F-E-M1,69.9,72,67.5,72.5,75,75,75,Single-ply,B,F,8,NM,England
Aaron Gideon,M-E-Open,63.7,66,165,170,175,175,175,Single-ply,B,M,1,,England
John Turner,M-E-Open,65.4,66,140,150,-155,150,150,Single-ply,B,M,2,,England
Gary Prater,M-E-M1,66.1,74,-125,125,-130,125,125,Single-ply,B,M,G,,England
Phil Richard,M-E-M1,73.6,74,210,218,-222.5,218,218,Single-ply,B,M,1,,England
Aaron Lohan,M-E-Open,82.9,83,185,190,200,200,200,Single-ply,B,M,2,NW,England
Cliff Haynes,M-E-M2,73,74,170,180,-190,180,180,Single-ply,B,M,3,,England
Lea Meachen,M-E-M1,81.6,83,185,-190,-202.5,185,185,Single-ply,B,M,4,,England
David Williams #2,M-E-M3,81.6,83,160,170,-175,170,170,Single-ply,B,M,5,,England
Alex Lee,M-E-M4,73.5,74,137.5,142.5,145,145,145,Single-ply,B,M,6,YNE,England
Doug D'Gama,M-E-M2,81.8,83,145,150,-152.5,150,150,Single-ply,B,M,7,,England
Glen Blacklock,M-E-M1,83,83,-150,150,-155,150,150,Single-ply,B,M,8,,England
Jared Sayed,M-E-U18,72.3,74,120,130,-140,130,130,Single-ply,B,M,9,,England
Stan Macrow,M-E-M3,69.5,74,120,-125,125,125,125,Single-ply,B,M,10,WM,England
Hari Singh Cheema,M-E-M3,73.4,74,122.5,-127.5,-127.5,122.5,122.5,Single-ply,B,M,11,WM,England
Kevin Barrs,M-E-M2,81.2,83,120,-150,-150,120,120,Single-ply,B,M,12,,England
Dean Bowring,M-E-M1,119,120,-282.5,-282.5,282.5,282.5,282.5,Single-ply,B,M,1,SM,England
Pinda Singh,M-E-Open,114.1,120,260,265,-277.5,265,265,Single-ply,B,M,2,WM,England
Ben Banks,M-E-Open,109.2,120,235,240,-245,240,240,Single-ply,B,M,3,GL,England
Paul Doherty,M-E-Open,126.6,120+,230,240,245,245,245,Single-ply,B,M,4,,England
Steven Gott,M-E-M1,118,120,-225,230,240,240,240,Single-ply,B,M,5,YNE,England
Ranbir Singh Sahota,M-E-Open,119.7,120,-215,220,225,225,225,Single-ply,B,M,6,WM,England
Brian Lee,M-E-M2,122.3,120+,190,210,217.5,217.5,217.5,Single-ply,B,M,7,,England
Martin Green #1,M-E-M1,104.2,105,235,-242.5,-242.5,235,235,Single-ply,B,M,1,,England
Ian Wells,M-E-Open,92,93,205,-210,-222.5,205,205,Single-ply,B,M,2,,England
Jaswinder Singh,M-E-M2,91.3,93,185,195,200,200,200,Single-ply,B,M,3,WM,England
Sangeet Dhillon,M-E-M1,101.7,105,192.5,202.5,207.5,207.5,207.5,Single-ply,B,M,4,,England
Steve De Meis,M-E-M2,103.5,105,192.5,197.5,207.5,207.5,207.5,Single-ply,B,M,5,,England
John Wright #2,M-E-M1,102.6,105,190,197.5,205,205,205,Single-ply,B,M,6,,England
Sheridan Wray,M-E-M1,90.8,93,185,-205,-210,185,185,Single-ply,B,M,7,YNE,England
Martin Flett,M-E-M2,101.7,105,185,192.5,-197.5,192.5,192.5,Single-ply,B,M,8,,England
Tom Collins #1,M-E-M3,104.4,105,185,190,-202.5,190,190,Single-ply,B,M,9,YNE,England
Chris Cooper,M-E-M2,92.8,93,-180,-180,180,180,180,Single-ply,B,M,10,YNE,England
Neil Head,M-E-M1,103.1,105,160,170,-172.5,170,170,Single-ply,B,M,11,,England
Paul Hammond #1,M-E-M2,92.5,93,160,-195,-197.5,160,160,Single-ply,B,M,12,,England
Kevin Jane,M-E-M3,92.7,93,150,157.5,160,160,160,Single-ply,B,M,13,EM,England
Mike Edwards,M-E-M3,89.7,93,-122.5,-122.5,122.5,122.5,122.5,Single-ply,B,M,14,,England
Matt Mackey,M-E-M2,162.7,120+,217.5,222.5,-227.5,222.5,222.5,Single-ply,B,M,8,,England
Stewart Cowan,M-E-M2,108,120,195,205,-215,205,205,Single-ply,B,M,9,,England
Graham Mellor,M-E-U23,156.6,120+,220,-260,-272.5,220,220,Single-ply,B,M,10,NM,England
Lee Mortimer,M-E-Open,121.7,120+,200,-220,-220,200,200,Single-ply,B,M,11,,England
David Brooks,M-E-M3,116.2,120,175,-185,-185,175,175,Single-ply,B,M,12,,England
Andrew Rodney,M-E-M1,117.9,120,160,170,175,175,175,Single-ply,B,M,13,,England
Jim Dulling,M-E-M3,106.3,120,152.5,157.5,162.5,162.5,162.5,Single-ply,B,M,14,YNE,England
Chris Gladding,M-E-M4,113.1,120,135,-142.5,142.5,142.5,142.5,Single-ply,B,M,15,,
Allan Hulme,M-E-M2,110.8,120,-215,-215,-217.5,,,Single-ply,B,M,DQ,,
